<?xml version="1.0" encoding="utf-8"?>
<!-- Generator: Adobe Illustrator 21.0.0, SVG Export Plug-In . SVG Version: 6.00 Build 0)  -->
<svg version="1.1" id="logos" xmlns="http://www.w3.org/2000/svg" xmlns:xlink="http://www.w3.org/1999/xlink" x="0px" y="0px"
	 viewBox="0 0 145.5 49.7" style="enable-background:new 0 0 145.5 49.7;" xml:space="preserve">
<style type="text/css">
	.st0{fill:#BC965C;}
	.st1{fill:#185090;}
</style>
<g>
	<g>
		<g>
			<g>
				<path class="st0" d="M7,45.6c0,1.1-0.7,2-1.6,2.3v-4.1c0,0,0,0,0.1,0c0,0,0,0,0.1,0c0,0,0,0,0.1,0c0,0,0.1,0,0.1,0
					c0,0,0,0,0.1,0c0,0,0.1-0.1,0.1-0.1c0.2-0.1,0.3-0.2,0.4-0.4c0.4-0.4,0.6-1,0.6-1.6c0-0.7-0.3-1.3-0.8-1.7
					c-0.1-0.1-0.2-0.2-0.4-0.3c-0.4-0.2-0.8-0.3-1.2-0.3c-0.4,0-0.8,0.1-1.1,0.3c-0.1,0-0.1,0.1-0.2,0.1c-0.1,0-0.1,0.1-0.2,0.1
					c0,0-0.1,0-0.1,0.1c-0.1,0.1-0.3,0.3-0.4,0.5c-0.2,0.4-0.4,0.8-0.4,1.3c0,0.5,0.1,0.9,0.4,1.3c0,0.1,0.1,0.1,0.1,0.2
					c0.1,0.1,0.2,0.2,0.3,0.3c0.1,0,0.1,0.1,0.2,0.1c0,0,0.1,0.1,0.1,0.1c0,0,0,0,0.1,0c0,0,0.1,0,0.1,0c0,0,0,0,0.1,0
					c0,0,0,0,0.1,0c0,0,0,0,0.1,0v4.1c-0.9-0.3-1.6-1.2-1.6-2.3H0.5c0,2.3,1.8,4.1,4.1,4.1h0c2.3,0,4.1-1.8,4.1-4.1v0H7z M4.6,42.4
					c-0.4,0-0.7-0.3-0.7-0.7s0.3-0.7,0.7-0.7s0.7,0.3,0.7,0.7S5,42.4,4.6,42.4z"/>
			</g>
			<path class="st0" d="M46.7,5.4l-0.1-0.1l-1.1-1V1.5h-1.7v1.1l-1-0.9l0,0L41.1,0l-1.7,1.7l0,0l-3.8,3.7l1.2,1.2v3.8h8.7V6.5l0,0
				L46.7,5.4L46.7,5.4L46.7,5.4z M43.8,5.4v3.3h-5.4V5.3V4.9l2.7-2.6l2.7,2.6V5.4z"/>
		</g>
		<g>
			<g>
				<path class="st1" d="M4.1,3.2h1.6v3.9H4.5V4.5C4.1,5.2,3.7,6,3.3,6.9h-1c-0.4-1-0.8-1.8-1.2-2.4v2.7H0V3.2h1.6
					c0.4,0.7,0.9,1.4,1.2,2.2C3.2,4.8,3.6,4.1,4.1,3.2z"/>
				<path class="st1" d="M11.5,3.5c0.4,0.3,0.6,0.8,0.6,1.6c0,0.8-0.2,1.3-0.6,1.6c-0.4,0.3-1,0.5-1.8,0.5C9,7.2,8.4,7.1,8,6.8
					C7.6,6.5,7.4,5.9,7.4,5.1c0-0.8,0.2-1.3,0.6-1.6s1-0.4,1.8-0.4C10.6,3.1,11.1,3.2,11.5,3.5z M10.4,6.2c0.1,0,0.2-0.1,0.3-0.2
					c0.2-0.2,0.2-0.4,0.2-0.9c0-0.2,0-0.3,0-0.4c0-0.2-0.1-0.4-0.2-0.5c0,0-0.1-0.1-0.2-0.1c-0.2-0.1-0.4-0.1-0.7-0.1
					c-0.2,0-0.3,0-0.4,0c-0.2,0-0.4,0.1-0.5,0.1c0,0-0.1,0.1-0.1,0.2C8.6,4.6,8.6,4.8,8.6,5.1c0,0.2,0,0.3,0,0.4
					c0,0.2,0.1,0.4,0.2,0.5c0,0,0.1,0.1,0.2,0.1c0.2,0.1,0.4,0.1,0.7,0.1C10,6.2,10.2,6.2,10.4,6.2z"/>
				<path class="st1" d="M15.1,7.2h-1.2V3.2h2.9c0.8,0,1.3,0.5,1.3,1.4c0,0.4-0.1,0.7-0.3,1C17.5,5.9,17.2,6,16.8,6h-1.7V7.2z
					 M16.3,5.1c0.3,0,0.5-0.2,0.5-0.5c0-0.4-0.2-0.5-0.5-0.5h-1.2v1H16.3z"/>
				<path class="st1" d="M19.6,3.2h3.6v1h-2.5v0.5h1.8v0.9h-1.8v0.6h2.5v1h-3.6V3.2z"/>
			</g>
			<g>
				<path class="st1" d="M17.5,46.6h-1.2v-3.9h2.9c0.8,0,1.3,0.5,1.3,1.4c0,0.4-0.1,0.7-0.3,1c-0.2,0.3-0.5,0.4-0.9,0.4h-1.7V46.6z
					 M18.7,44.5c0.3,0,0.5-0.2,0.5-0.5c0-0.4-0.2-0.5-0.5-0.5h-1.2v1H18.7z"/>
				<path class="st1" d="M21.9,43.8c0-0.7,0.4-1.2,1.3-1.2h2.9v3.9h-1.2v-1.3h-0.7c-0.3,0-0.5,0.1-0.6,0.2c-0.1,0.2-0.3,0.5-0.5,1.1
					h-1.4c0.3-0.7,0.5-1.1,0.7-1.4c0.2-0.2,0.4-0.3,0.7-0.3C22.3,44.8,21.9,44.5,21.9,43.8z M24.9,44.4v-0.8h-1.3
					c-0.3,0-0.4,0.1-0.4,0.4c0,0.3,0.1,0.4,0.4,0.4H24.9z"/>
				<path class="st1" d="M32.5,42.6v2.9h0.9l-0.2,1.9h-1v-0.9h-3.4v0.9h-1l-0.2-1.9h0.8c0.4-1.1,0.6-2.1,0.7-2.9H32.5z M31.3,45.6
					v-2h-1.2c-0.1,0.8-0.3,1.4-0.4,2H31.3z"/>
				<path class="st1" d="M38.7,42.9c0.4,0.3,0.6,0.8,0.6,1.6c0,0.8-0.2,1.3-0.6,1.6c-0.4,0.3-1,0.5-1.8,0.5c-0.8,0-1.4-0.1-1.8-0.4
					c-0.4-0.3-0.6-0.9-0.6-1.7c0-0.8,0.2-1.3,0.6-1.6c0.4-0.3,1-0.4,1.8-0.4C37.7,42.5,38.3,42.6,38.7,42.9z M37.5,45.6
					c0.1,0,0.2-0.1,0.3-0.2c0.2-0.2,0.2-0.4,0.2-0.9c0-0.2,0-0.3,0-0.4c0-0.2-0.1-0.4-0.2-0.5c0,0-0.1-0.1-0.2-0.1
					c-0.2-0.1-0.4-0.1-0.7-0.1c-0.2,0-0.3,0-0.4,0c-0.2,0-0.4,0.1-0.5,0.1c0,0-0.1,0.1-0.1,0.2c-0.1,0.2-0.1,0.3-0.1,0.7
					c0,0.2,0,0.3,0,0.4c0,0.2,0.1,0.4,0.2,0.5c0,0,0.1,0.1,0.2,0.1c0.2,0.1,0.4,0.1,0.7,0.1C37.2,45.6,37.4,45.6,37.5,45.6z"/>
				<path class="st1" d="M45.1,42.6h1.6v3.9h-1.1v-2.7c-0.4,0.7-0.8,1.5-1.2,2.4h-1c-0.4-1-0.8-1.8-1.2-2.4v2.7h-1.1v-3.9h1.6
					c0.4,0.7,0.9,1.4,1.2,2.2C44.2,44.2,44.6,43.5,45.1,42.6z"/>
			</g>
			<path class="st1" d="M46.3,21c-0.5,0-1.1-0.3-1.7-0.8c-0.7-0.5-1.4-1.3-2.1-2c-0.8-0.8-1.5-1.6-2.4-2.2c-1.1-0.9-2.2-1-3-1
				c-1.5,0-2.4,0.5-3,1c-0.8,0.6-1.6,1.5-2.4,2.2c-0.7,0.7-1.4,1.5-2.1,2c-0.7,0.5-1.2,0.6-1.8,0.6c-0.5,0-1.1-0.1-1.8-0.6
				c-0.7-0.5-1.4-1.3-2.1-2c-0.8-0.8-1.5-1.6-2.4-2.2c-1-0.7-1.9-1.1-3-1.1c-1.1,0-2,0.3-3,1.1c-0.8,0.6-1.6,1.5-2.4,2.2
				c-0.7,0.7-1.4,1.5-2.1,2c-0.7,0.5-1.2,0.6-1.8,0.6c-0.5,0-1.1-0.1-1.8-0.6c-0.7-0.5-1.4-1.3-2.1-2c-0.8-0.8-1.5-1.6-2.4-2.2
				c-1-0.8-2-1.2-3-1.2H0v2h0.2c0.5,0,1.1,0.3,1.8,0.8c0.7,0.5,1.4,1.3,2.1,2c0.8,0.8,1.5,1.6,2.4,2.2c1.1,0.9,2.2,1,3,1
				c1.5,0,2.4-0.5,3-1c0.8-0.6,1.6-1.5,2.4-2.2c0.7-0.7,1.4-1.5,2.1-2c0.6-0.4,1.2-0.7,1.8-0.7c0.6,0,1.2,0.2,1.8,0.7
				c0.7,0.5,1.4,1.3,2.1,2c0.8,0.8,1.5,1.6,2.4,2.2c1.1,0.9,2.2,1,3,1c1.5,0,2.4-0.5,3-1c0.8-0.6,1.6-1.5,2.4-2.2
				c0.7-0.7,1.4-1.5,2.1-2c0.7-0.5,1.2-0.6,1.8-0.6c0.5,0,1.1,0.1,1.8,0.6c0.7,0.5,1.4,1.3,2.1,2c0.8,0.8,1.5,1.6,2.4,2.2
				c1,0.8,1.9,1.2,2.9,1.2l0.4,0v-2L46.3,21z"/>
			<path class="st1" d="M46.3,33.5c-0.5,0-1.1-0.3-1.7-0.8c-0.7-0.5-1.4-1.3-2.1-2c-0.8-0.8-1.5-1.6-2.4-2.2c-1.1-0.9-2.2-1-3-1
				c-1.5,0-2.4,0.5-3,1c-0.8,0.6-1.6,1.5-2.4,2.2c-0.7,0.7-1.4,1.5-2.1,2c-0.7,0.5-1.2,0.6-1.8,0.6c-0.5,0-1.1-0.1-1.8-0.6
				c-0.7-0.5-1.4-1.3-2.1-2c-0.8-0.8-1.5-1.6-2.4-2.2c-1-0.7-1.9-1.1-3-1.1c-1.1,0-2,0.3-3,1.1c-0.8,0.6-1.6,1.5-2.4,2.2
				c-0.7,0.7-1.4,1.5-2.1,2c-0.7,0.5-1.2,0.6-1.8,0.6c-0.5,0-1.1-0.1-1.8-0.6c-0.7-0.5-1.4-1.3-2.1-2c-0.8-0.8-1.5-1.6-2.4-2.2
				c-1-0.8-2-1.2-3-1.2H0v2h0.2c0.5,0,1.1,0.3,1.8,0.8c0.7,0.5,1.4,1.3,2.1,2c0.8,0.8,1.5,1.6,2.4,2.2c1.1,0.9,2.2,1,3,1
				c1.5,0,2.4-0.5,3-1c0.8-0.6,1.6-1.5,2.4-2.2c0.7-0.7,1.4-1.5,2.1-2c0.6-0.4,1.2-0.7,1.8-0.7c0.6,0,1.2,0.2,1.8,0.7
				c0.7,0.5,1.4,1.3,2.1,2c0.8,0.8,1.5,1.6,2.4,2.2c1.1,0.9,2.2,1,3,1c1.5,0,2.4-0.5,3-1c0.8-0.6,1.6-1.5,2.4-2.2
				c0.7-0.7,1.4-1.5,2.1-2c0.7-0.5,1.2-0.6,1.8-0.6c0.5,0,1.1,0.1,1.8,0.6c0.7,0.5,1.4,1.3,2.1,2c0.8,0.8,1.5,1.6,2.4,2.2
				c1,0.8,1.9,1.2,2.9,1.2l0.4,0v-2L46.3,33.5z"/>
			<path class="st1" d="M46.3,27.2c-0.5,0-1.1-0.3-1.7-0.8c-0.7-0.5-1.4-1.3-2.1-2c-0.8-0.8-1.5-1.6-2.4-2.2c-1.1-0.9-2.2-1-3-1
				c-1.5,0-2.4,0.5-3,1c-0.8,0.6-1.6,1.5-2.4,2.2c-0.7,0.7-1.4,1.5-2.1,2C29,27,28.4,27,27.9,27c-0.5,0-1.1-0.1-1.8-0.6
				c-0.7-0.5-1.4-1.3-2.1-2c-0.8-0.8-1.5-1.6-2.4-2.2c-1-0.7-1.9-1.1-3-1.1c-1.1,0-2,0.3-3,1.1c-0.8,0.6-1.6,1.5-2.4,2.2
				c-0.7,0.7-1.4,1.5-2.1,2C10.5,27,10,27,9.4,27c-0.5,0-1.1-0.1-1.8-0.6c-0.7-0.5-1.4-1.3-2.1-2c-0.8-0.8-1.5-1.6-2.4-2.2
				c-1-0.8-2-1.2-3-1.2H0v2h0.2c0.5,0,1.1,0.3,1.8,0.8c0.7,0.5,1.4,1.3,2.1,2c0.8,0.8,1.5,1.6,2.4,2.2c1.1,0.9,2.2,1,3,1
				c1.5,0,2.4-0.5,3-1c0.8-0.6,1.6-1.5,2.4-2.2c0.7-0.7,1.4-1.5,2.1-2c0.6-0.4,1.2-0.7,1.8-0.7c0.6,0,1.2,0.2,1.8,0.7
				c0.7,0.5,1.4,1.3,2.1,2c0.8,0.8,1.5,1.6,2.4,2.2c1.1,0.9,2.2,1,3,1c1.5,0,2.4-0.5,3-1c0.8-0.6,1.6-1.5,2.4-2.2
				c0.7-0.7,1.4-1.5,2.1-2c0.7-0.5,1.2-0.6,1.8-0.6c0.5,0,1.1,0.1,1.8,0.6c0.7,0.5,1.4,1.3,2.1,2c0.8,0.8,1.5,1.6,2.4,2.2
				c1,0.8,1.9,1.2,2.9,1.2l0.4,0v-2L46.3,27.2z"/>
		</g>
	</g>
	<g>
		<g>
			<path class="st0" d="M66.5,19.8c0,2.2-1.6,3-5.2,3c-1.3,0-2.8-0.1-4.3-0.4l0.3-1.7c0.8,0.2,2,0.3,3.5,0.3c1.4,0,2.3-0.1,2.7-0.3
				c0.5-0.2,0.7-0.6,0.7-1.2c0-1.1-0.7-1.5-2.6-1.5h-1.9v-1.6h1.9c1.7,0,2.4-0.3,2.4-1.3c0-1-0.4-1.2-3.2-1.2c-0.4,0-1,0-1.8,0.1
				c-0.7,0-1.3,0.1-1.6,0.2l-0.3-1.6c1.5-0.2,2.9-0.4,4.2-0.4c1.8,0,3.1,0.2,3.8,0.6c0.7,0.4,1.1,1.1,1.1,2c0,0.7-0.2,1.3-0.5,1.7
				c-0.4,0.4-1,0.6-2,0.7C65.7,17.2,66.5,18.2,66.5,19.8z"/>
			<path class="st0" d="M78.8,13.2c1.1,0.8,1.5,2.1,1.5,4.2c0,2.1-0.5,3.5-1.5,4.3c-1,0.8-2.4,1.1-4.5,1.1c-2.1,0-3.4-0.3-4.5-1.1
				c-1-0.8-1.5-2.2-1.5-4.3c0-2,0.5-3.4,1.5-4.2c1.1-0.8,2.4-1.1,4.5-1.1C76.4,12.1,77.7,12.4,78.8,13.2z M76.9,20.6
				c0.9-0.5,1.1-1.4,1.1-3.2c0-1.6-0.1-2.4-0.8-2.9C77,14.2,76.6,14,76.2,14c-0.4-0.1-1.1-0.1-1.9-0.1c-1.3,0-2,0.1-2.6,0.4
				c-0.9,0.5-1.1,1.3-1.1,3.2c0,3.1,0.7,3.6,3.7,3.6C75.6,21,76.3,20.9,76.9,20.6z"/>
			<path class="st0" d="M85.9,14c-0.2,2.4-0.6,4.4-1.3,6.1c-0.7,1.6-1.8,2.6-3.1,2.6c0-0.2-0.1-0.5-0.2-0.9
				c-0.1-0.4-0.2-0.7-0.2-0.9c0.8,0,1.5-0.8,2-2.3c0.5-1.5,0.8-3.6,1-6.3h8.4v10.2h-2V14H85.9z"/>
			<path class="st0" d="M105.3,13.2c1.1,0.8,1.5,2.1,1.5,4.2c0,2.1-0.5,3.5-1.5,4.3c-1,0.8-2.4,1.1-4.5,1.1c-2.1,0-3.4-0.3-4.5-1.1
				c-1-0.8-1.5-2.2-1.5-4.3c0-2,0.5-3.4,1.5-4.2c1.1-0.8,2.4-1.1,4.5-1.1C102.9,12.1,104.2,12.4,105.3,13.2z M103.4,20.6
				c0.9-0.5,1.1-1.4,1.1-3.2c0-1.6-0.1-2.4-0.8-2.9c-0.3-0.3-0.7-0.4-1.1-0.5c-0.4-0.1-1.1-0.1-1.9-0.1c-1.3,0-2,0.1-2.6,0.4
				c-0.9,0.5-1.1,1.3-1.1,3.2c0,3.1,0.7,3.6,3.7,3.6C102.1,21,102.8,20.9,103.4,20.6z"/>
			<path class="st0" d="M114,14v8.5h-2.1V14h-4.4v-1.7h10.8V14H114z"/>
			<path class="st0" d="M119.8,12.3h2V16h4.7c2.3,0,3.3,1.3,3.3,3.3c0,2.2-1.1,3.3-3.2,3.3h-6.9V12.3z M126,20.9
				c1.2,0,1.6-0.5,1.6-1.7c0-1.2-0.5-1.7-1.7-1.7h-4.1v3.3H126z M131.4,12.3h2v10.2h-2V12.3z"/>
			<path class="st0" d="M136.5,12.3h9V14h-6.9v2.4h5V18h-5v2.9h6.9v1.7h-9V12.3z"/>
		</g>
		<g>
			<path class="st0" d="M59.1,29.2v8.5h-2V27.6h10v10.2h-2v-8.5H59.1z"/>
			<path class="st0" d="M70,27.6h9v1.7h-6.9v2.4h5v1.7h-5v2.9H79v1.7h-9V27.6z"/>
			<path class="st0" d="M89.5,27.7l-0.3,1.7c-0.7-0.2-1.6-0.3-2.7-0.3c-0.6,0-1,0-1.4,0c-0.7,0-1.4,0.2-1.8,0.5
				c-0.6,0.5-0.9,1.3-0.9,2.9c0,1.6,0.2,2.5,0.9,3c0.7,0.5,1.5,0.6,3.2,0.6c1.1,0,2-0.1,2.7-0.3l0.3,1.8c-1,0.2-2.2,0.3-3.4,0.3
				c-2,0-3.4-0.3-4.4-1.1c-1-0.8-1.4-2.2-1.4-4.3c0-2.1,0.5-3.4,1.5-4.2c1-0.8,2.3-1.1,4.4-1.1C87.3,27.3,88.5,27.4,89.5,27.7z"/>
			<path class="st0" d="M99.1,37.8c-0.9-1.9-1.7-3.1-2.6-3.8c-0.9-0.7-1.8-1-3.2-1v4.8h-2V27.6h2v5.1c0.7-0.5,1.5-1.1,2.5-2.1
				c1-0.9,1.9-1.9,2.9-3h2.7c-1.1,1.2-2.1,2.2-2.9,3c-0.8,0.8-1.4,1.3-1.8,1.6c0.4,0.1,0.8,0.2,1.1,0.4c0.3,0.2,0.7,0.4,1.1,0.8
				c0.8,0.8,1.7,2.2,2.8,4.4H99.1z"/>
			<path class="st0" d="M104.9,27.6v8.1c2.3-2.9,4.4-5.6,6.1-8.1h2.6v10.2h-2V30c-2.2,3.1-4.2,5.7-5.8,7.8h-2.9V27.6H104.9z"/>
		</g>
	</g>
</g>
</svg>
